%YAML 1.1
%TAG !u! tag:unity3d.com,2011:
--- !u!74 &7400000
AnimationClip:
  m_ObjectHideFlags: 0
  m_CorrespondingSourceObject: {fileID: 0}
  m_PrefabInstance: {fileID: 0}
  m_PrefabAsset: {fileID: 0}
  m_Name: bug_move
  serializedVersion: 6
  m_Legacy: 0
  m_Compressed: 0
  m_UseHighQualityCurve: 1
  m_RotationCurves: []
  m_CompressedRotationCurves: []
  m_EulerCurves: []
  m_PositionCurves: []
  m_ScaleCurves: []
  m_FloatCurves: []
  m_PPtrCurves:
  - curve:
    - time: 0
      value: {fileID: 21300000, guid: c756c52e232a13540b15e7c042c7348f, type: 3}
    - time: 0.083333336
      value: {fileID: 21300000, guid: 957f86a67589d534b83598e3faa7f15f, type: 3}
    - time: 0.16666667
      value: {fileID: 21300000, guid: 02580d28f0c7ed54e9f8b2182cc04ebe, type: 3}
    - time: 0.25
      value: {fileID: 21300000, guid: 194a9bc0b9f14af448762f3a66518df7, type: 3}
    - time: 0.33333334
      value: {fileID: 21300000, guid: b05d2e588e3f38d4e9b1dd37b20c0d56, type: 3}
    - time: 0.41666666
      value: {fileID: 21300000, guid: fd951af9848122a43b0af498f072e0de, type: 3}
    - time: 0.45833334
      value: {fileID: 21300000, guid: fd951af9848122a43b0af498f072e0de, type: 3}
    attribute: m_Sprite
    path: 
    classID: 212
    script: {fileID: 0}
  m_SampleRate: 24
  m_WrapMode: 0
  m_Bounds:
    m_Center: {x: 0, y: 0, z: 0}
    m_Extent: {x: 0, y: 0, z: 0}
  m_ClipBindingConstant:
    genericBindings:
    - serializedVersion: 2
      path: 0
      attribute: 0
      script: {fileID: 0}
      typeID: 212
      customType: 23
      isPPtrCurve: 1
    pptrCurveMapping:
    - {fileID: 21300000, guid: c756c52e232a13540b15e7c042c7348f, type: 3}
    - {fileID: 21300000, guid: 957f86a67589d534b83598e3faa7f15f, type: 3}
    - {fileID: 21300000, guid: 02580d28f0c7ed54e9f8b2182cc04ebe, type: 3}
    - {fileID: 21300000, guid: 194a9bc0b9f14af448762f3a66518df7, type: 3}
    - {fileID: 21300000, guid: b05d2e588e3f38d4e9b1dd37b20c0d56, type: 3}
    - {fileID: 21300000, guid: fd951af9848122a43b0af498f072e0de, type: 3}
    - {fileID: 21300000, guid: fd951af9848122a43b0af498f072e0de, type: 3}
  m_AnimationClipSettings:
    serializedVersion: 2
    m_AdditiveReferencePoseClip: {fileID: 0}
    m_AdditiveReferencePoseTime: 0
    m_StartTime: 0
    m_StopTime: 0.5
    m_OrientationOffsetY: 0
    m_Level: 0
    m_CycleOffset: 0
    m_HasAdditiveReferencePose: 0
    m_LoopTime: 1
    m_LoopBlend: 0
    m_LoopBlendOrientation: 0
    m_LoopBlendPositionY: 0
    m_LoopBlendPositionXZ: 0
    m_KeepOriginalOrientation: 0
    m_KeepOriginalPositionY: 1
    m_KeepOriginalPositionXZ: 0
    m_HeightFromFeet: 0
    m_Mirror: 0
  m_EditorCurves: []
  m_EulerEditorCurves: []
  m_HasGenericRootTransform: 0
  m_HasMotionFloatCurves: 0
  m_Events: []
