%YAML 1.1
%TAG !u! tag:unity3d.com,2011:
--- !u!74 &7400000
AnimationClip:
  m_ObjectHideFlags: 0
  m_CorrespondingSourceObject: {fileID: 0}
  m_PrefabInstance: {fileID: 0}
  m_PrefabAsset: {fileID: 0}
  m_Name: npc
  serializedVersion: 6
  m_Legacy: 0
  m_Compressed: 0
  m_UseHighQualityCurve: 1
  m_RotationCurves: []
  m_CompressedRotationCurves: []
  m_EulerCurves: []
  m_PositionCurves: []
  m_ScaleCurves: []
  m_FloatCurves: []
  m_PPtrCurves:
  - curve:
    - time: 0
      value: {fileID: 21300000, guid: 58387ab60aa77104c8ddb055c53fef6a, type: 3}
    - time: 0.16666667
      value: {fileID: 21300000, guid: 972d4d4f399ec6a469491ce6b25eeb88, type: 3}
    - time: 0.33333334
      value: {fileID: 21300000, guid: 93c18faee55b6e041b1d7396bd240761, type: 3}
    - time: 0.5
      value: {fileID: 21300000, guid: f7a22d003be659449bb44f7db5879ea7, type: 3}
    - time: 0.6666667
      value: {fileID: 21300000, guid: 39febe83566e7794d8d80ba5b440d02c, type: 3}
    - time: 0.8333333
      value: {fileID: 21300000, guid: 6d82fa6171d71af429b3800de0ebf24b, type: 3}
    - time: 1
      value: {fileID: 21300000, guid: c47e4650ddf20c14495e392db5af61b8, type: 3}
    - time: 1.1666666
      value: {fileID: 21300000, guid: f44121e7b7dc19e4a82a3e283aa865d9, type: 3}
    - time: 1.2916666
      value: {fileID: 21300000, guid: f44121e7b7dc19e4a82a3e283aa865d9, type: 3}
    attribute: m_Sprite
    path: 
    classID: 212
    script: {fileID: 0}
  m_SampleRate: 24
  m_WrapMode: 0
  m_Bounds:
    m_Center: {x: 0, y: 0, z: 0}
    m_Extent: {x: 0, y: 0, z: 0}
  m_ClipBindingConstant:
    genericBindings:
    - serializedVersion: 2
      path: 0
      attribute: 0
      script: {fileID: 0}
      typeID: 212
      customType: 23
      isPPtrCurve: 1
    pptrCurveMapping:
    - {fileID: 21300000, guid: 58387ab60aa77104c8ddb055c53fef6a, type: 3}
    - {fileID: 21300000, guid: 972d4d4f399ec6a469491ce6b25eeb88, type: 3}
    - {fileID: 21300000, guid: 93c18faee55b6e041b1d7396bd240761, type: 3}
    - {fileID: 21300000, guid: f7a22d003be659449bb44f7db5879ea7, type: 3}
    - {fileID: 21300000, guid: 39febe83566e7794d8d80ba5b440d02c, type: 3}
    - {fileID: 21300000, guid: 6d82fa6171d71af429b3800de0ebf24b, type: 3}
    - {fileID: 21300000, guid: c47e4650ddf20c14495e392db5af61b8, type: 3}
    - {fileID: 21300000, guid: f44121e7b7dc19e4a82a3e283aa865d9, type: 3}
    - {fileID: 21300000, guid: f44121e7b7dc19e4a82a3e283aa865d9, type: 3}
  m_AnimationClipSettings:
    serializedVersion: 2
    m_AdditiveReferencePoseClip: {fileID: 0}
    m_AdditiveReferencePoseTime: 0
    m_StartTime: 0
    m_StopTime: 1.3333333
    m_OrientationOffsetY: 0
    m_Level: 0
    m_CycleOffset: 0
    m_HasAdditiveReferencePose: 0
    m_LoopTime: 1
    m_LoopBlend: 0
    m_LoopBlendOrientation: 0
    m_LoopBlendPositionY: 0
    m_LoopBlendPositionXZ: 0
    m_KeepOriginalOrientation: 0
    m_KeepOriginalPositionY: 1
    m_KeepOriginalPositionXZ: 0
    m_HeightFromFeet: 0
    m_Mirror: 0
  m_EditorCurves: []
  m_EulerEditorCurves: []
  m_HasGenericRootTransform: 0
  m_HasMotionFloatCurves: 0
  m_Events: []
