%YAML 1.1
%TAG !u! tag:unity3d.com,2011:
--- !u!74 &7400000
AnimationClip:
  m_ObjectHideFlags: 0
  m_CorrespondingSourceObject: {fileID: 0}
  m_PrefabInstance: {fileID: 0}
  m_PrefabAsset: {fileID: 0}
  m_Name: jumpFall
  serializedVersion: 6
  m_Legacy: 0
  m_Compressed: 0
  m_UseHighQualityCurve: 1
  m_RotationCurves: []
  m_CompressedRotationCurves: []
  m_EulerCurves: []
  m_PositionCurves: []
  m_ScaleCurves: []
  m_FloatCurves: []
  m_PPtrCurves:
  - curve:
    - time: 0
      value: {fileID: 21300000, guid: 6d1a3472f518671408f157bb4c2f4c39, type: 3}
    - time: 0.083333336
      value: {fileID: 21300000, guid: fad9ee24b3c256e4baf3d81a06561f22, type: 3}
    - time: 0.16666667
      value: {fileID: 21300000, guid: 60a94af9fd545c54dacae6812588a2d5, type: 3}
    - time: 0.25
      value: {fileID: 21300000, guid: 625a119a90c4c2e4c9f5fdc650164f85, type: 3}
    - time: 0.29166666
      value: {fileID: 21300000, guid: 625a119a90c4c2e4c9f5fdc650164f85, type: 3}
    attribute: m_Sprite
    path: 
    classID: 212
    script: {fileID: 0}
  m_SampleRate: 24
  m_WrapMode: 0
  m_Bounds:
    m_Center: {x: 0, y: 0, z: 0}
    m_Extent: {x: 0, y: 0, z: 0}
  m_ClipBindingConstant:
    genericBindings:
    - serializedVersion: 2
      path: 0
      attribute: 0
      script: {fileID: 0}
      typeID: 212
      customType: 23
      isPPtrCurve: 1
    pptrCurveMapping:
    - {fileID: 21300000, guid: 6d1a3472f518671408f157bb4c2f4c39, type: 3}
    - {fileID: 21300000, guid: fad9ee24b3c256e4baf3d81a06561f22, type: 3}
    - {fileID: 21300000, guid: 60a94af9fd545c54dacae6812588a2d5, type: 3}
    - {fileID: 21300000, guid: 625a119a90c4c2e4c9f5fdc650164f85, type: 3}
    - {fileID: 21300000, guid: 625a119a90c4c2e4c9f5fdc650164f85, type: 3}
  m_AnimationClipSettings:
    serializedVersion: 2
    m_AdditiveReferencePoseClip: {fileID: 0}
    m_AdditiveReferencePoseTime: 0
    m_StartTime: 0
    m_StopTime: 0.3333333
    m_OrientationOffsetY: 0
    m_Level: 0
    m_CycleOffset: 0
    m_HasAdditiveReferencePose: 0
    m_LoopTime: 1
    m_LoopBlend: 0
    m_LoopBlendOrientation: 0
    m_LoopBlendPositionY: 0
    m_LoopBlendPositionXZ: 0
    m_KeepOriginalOrientation: 0
    m_KeepOriginalPositionY: 1
    m_KeepOriginalPositionXZ: 0
    m_HeightFromFeet: 0
    m_Mirror: 0
  m_EditorCurves: []
  m_EulerEditorCurves: []
  m_HasGenericRootTransform: 0
  m_HasMotionFloatCurves: 0
  m_Events: []
