%YAML 1.1
%TAG !u! tag:unity3d.com,2011:
--- !u!74 &7400000
AnimationClip:
  m_ObjectHideFlags: 0
  m_CorrespondingSourceObject: {fileID: 0}
  m_PrefabInstance: {fileID: 0}
  m_PrefabAsset: {fileID: 0}
  m_Name: pulsoAttack
  serializedVersion: 6
  m_Legacy: 0
  m_Compressed: 0
  m_UseHighQualityCurve: 1
  m_RotationCurves: []
  m_CompressedRotationCurves: []
  m_EulerCurves: []
  m_PositionCurves: []
  m_ScaleCurves: []
  m_FloatCurves: []
  m_PPtrCurves:
  - curve:
    - time: 0
      value: {fileID: 21300000, guid: bf10d763e5517d046a65428f8cc6261c, type: 3}
    - time: 0.041666668
      value: {fileID: 21300000, guid: 179e082e54da03f4c8accba4e4faec24, type: 3}
    - time: 0.083333336
      value: {fileID: 21300000, guid: 2364a0f038b7b7647b1427cedf8a11ba, type: 3}
    - time: 0.125
      value: {fileID: 21300000, guid: f6f6990ef3b9fa34ab68f6ab838880c6, type: 3}
    - time: 0.16666667
      value: {fileID: 21300000, guid: 1c2e41831645dd041a792081e31ba889, type: 3}
    - time: 0.25
      value: {fileID: 21300000, guid: 18d1d607da2ce0e4e86fc62aa9ac3d63, type: 3}
    - time: 0.33333334
      value: {fileID: 21300000, guid: d521d9eb9768fec4fb8c429ef44f7797, type: 3}
    - time: 0.41666666
      value: {fileID: 21300000, guid: b6c9ce971b442fa4dadd1fde77860fa7, type: 3}
    - time: 0.5
      value: {fileID: 21300000, guid: 92f625f5154d43f42812c0f5a5ced636, type: 3}
    - time: 0.5833333
      value: {fileID: 21300000, guid: f85a6c8341b237b489ef1d25abf6ccbd, type: 3}
    - time: 0.6666667
      value: {fileID: 21300000, guid: 1e2814e93afb8ff4e906d66dee362c4e, type: 3}
    - time: 0.75
      value: {fileID: 21300000, guid: 8500a6576f1c1514ca2c20014ea0a0da, type: 3}
    - time: 0.875
      value: {fileID: 21300000, guid: a4a7ee473be65114cac651581f84bdb6, type: 3}
    - time: 1
      value: {fileID: 21300000, guid: dcab187f77dff5845bfab07a8ecf197c, type: 3}
    - time: 1.125
      value: {fileID: 21300000, guid: 032bf45fa932b434f88c96c35e21ded7, type: 3}
    - time: 1.25
      value: {fileID: 21300000, guid: 5af20334186cf164e8ffae8a02ac7202, type: 3}
    - time: 1.375
      value: {fileID: 21300000, guid: 63f70ed1ff9798f4890041e41f5572df, type: 3}
    - time: 1.5416666
      value: {fileID: 21300000, guid: ce584244349698f4cb446cc4fd98a636, type: 3}
    - time: 1.7083334
      value: {fileID: 21300000, guid: f2a277f7bfe5cb14ebbbfa076680d9ce, type: 3}
    - time: 1.7916666
      value: {fileID: 21300000, guid: f2a277f7bfe5cb14ebbbfa076680d9ce, type: 3}
    attribute: m_Sprite
    path: 
    classID: 212
    script: {fileID: 0}
  m_SampleRate: 24
  m_WrapMode: 0
  m_Bounds:
    m_Center: {x: 0, y: 0, z: 0}
    m_Extent: {x: 0, y: 0, z: 0}
  m_ClipBindingConstant:
    genericBindings:
    - serializedVersion: 2
      path: 0
      attribute: 0
      script: {fileID: 0}
      typeID: 212
      customType: 23
      isPPtrCurve: 1
    pptrCurveMapping:
    - {fileID: 21300000, guid: bf10d763e5517d046a65428f8cc6261c, type: 3}
    - {fileID: 21300000, guid: 179e082e54da03f4c8accba4e4faec24, type: 3}
    - {fileID: 21300000, guid: 2364a0f038b7b7647b1427cedf8a11ba, type: 3}
    - {fileID: 21300000, guid: f6f6990ef3b9fa34ab68f6ab838880c6, type: 3}
    - {fileID: 21300000, guid: 1c2e41831645dd041a792081e31ba889, type: 3}
    - {fileID: 21300000, guid: 18d1d607da2ce0e4e86fc62aa9ac3d63, type: 3}
    - {fileID: 21300000, guid: d521d9eb9768fec4fb8c429ef44f7797, type: 3}
    - {fileID: 21300000, guid: b6c9ce971b442fa4dadd1fde77860fa7, type: 3}
    - {fileID: 21300000, guid: 92f625f5154d43f42812c0f5a5ced636, type: 3}
    - {fileID: 21300000, guid: f85a6c8341b237b489ef1d25abf6ccbd, type: 3}
    - {fileID: 21300000, guid: 1e2814e93afb8ff4e906d66dee362c4e, type: 3}
    - {fileID: 21300000, guid: 8500a6576f1c1514ca2c20014ea0a0da, type: 3}
    - {fileID: 21300000, guid: a4a7ee473be65114cac651581f84bdb6, type: 3}
    - {fileID: 21300000, guid: dcab187f77dff5845bfab07a8ecf197c, type: 3}
    - {fileID: 21300000, guid: 032bf45fa932b434f88c96c35e21ded7, type: 3}
    - {fileID: 21300000, guid: 5af20334186cf164e8ffae8a02ac7202, type: 3}
    - {fileID: 21300000, guid: 63f70ed1ff9798f4890041e41f5572df, type: 3}
    - {fileID: 21300000, guid: ce584244349698f4cb446cc4fd98a636, type: 3}
    - {fileID: 21300000, guid: f2a277f7bfe5cb14ebbbfa076680d9ce, type: 3}
    - {fileID: 21300000, guid: f2a277f7bfe5cb14ebbbfa076680d9ce, type: 3}
  m_AnimationClipSettings:
    serializedVersion: 2
    m_AdditiveReferencePoseClip: {fileID: 0}
    m_AdditiveReferencePoseTime: 0
    m_StartTime: 0
    m_StopTime: 1.8333333
    m_OrientationOffsetY: 0
    m_Level: 0
    m_CycleOffset: 0
    m_HasAdditiveReferencePose: 0
    m_LoopTime: 1
    m_LoopBlend: 0
    m_LoopBlendOrientation: 0
    m_LoopBlendPositionY: 0
    m_LoopBlendPositionXZ: 0
    m_KeepOriginalOrientation: 0
    m_KeepOriginalPositionY: 1
    m_KeepOriginalPositionXZ: 0
    m_HeightFromFeet: 0
    m_Mirror: 0
  m_EditorCurves: []
  m_EulerEditorCurves: []
  m_HasGenericRootTransform: 0
  m_HasMotionFloatCurves: 0
  m_Events: []
