%YAML 1.1
%TAG !u! tag:unity3d.com,2011:
--- !u!78 &1
TagManager:
  serializedVersion: 2
  tags:
  - suelo
  - Npc
  - NPC
  - RM
  - bala
  - destruir
  - EnemyE
  - EnemyP
  - EnemyB
  - EnemyF
  - EnemyH
  - pared
  layers:
  - Default
  - TransparentFX
  - Ignore Raycast
  - player
  - Water
  - UI
  - enemy
  - triggerNPC
  - suelo
  - pared
  - bala
  - destructorBala
  - enemyD
  - enemyM
  - enemyF
  - 
  - 
  - 
  - 
  - 
  - 
  - 
  - 
  - 
  - 
  - 
  - 
  - 
  - 
  - 
  - 
  - 
  m_SortingLayers:
  - name: Default
    uniqueID: 0
    locked: 0
  - name: fondo
    uniqueID: 869438787
    locked: 0
  - name: fondo_Plano1
    uniqueID: 4007259329
    locked: 0
  - name: fondo_Plano2
    uniqueID: 1033320783
    locked: 0
  - name: escenario
    uniqueID: 1937962127
    locked: 0
  - name: detalles
    uniqueID: 2142487115
    locked: 0
  - name: interactuables
    uniqueID: 338768323
    locked: 0
